vcd/case1.vcd
$date
	Fri Feb  7 10:51:57 2025

$end
$version
	Chronologic Simulation VCS Release O-2018.09-SP2_Full64
$end
$timescale
	1ps
$end
$scope module usb_link_top_tb $end
$var reg 1 ! clk $end
$var reg 1 " rst_n $end
$var reg 7 # self_addr [6:0] $end
$var reg 1 $ ms $end
$var reg 16 % time_threshold [15:0] $end
$var reg 6 & delay_threshole [5:0] $end
$var wire 1 ' crc5_err $end
$var wire 1 ( time_out $end
$var wire 1 ) d_oe $end
$var reg 1 * rx_lp_sop $end
$var reg 1 + rx_lp_eop $end
$var reg 1 , rx_lp_valid $end
$var wire 1 - rx_lp_ready $end
$var reg 8 . rx_lp_data [7:0] $end
$var wire 1 / tx_lp_sop $end
$var wire 1 0 tx_lp_eop $end
$var wire 1 1 tx_lp_valid $end
$var reg 1 2 tx_lp_ready $end
$var wire 8 3 tx_lp_data [7:0] $end
$var wire 1 4 tx_lp_cancle $end
$var wire 1 5 rx_pid_en $end
$var wire 4 6 rx_pid [3:0] $end
$var wire 4 7 rx_endp [3:0] $end
$var wire 1 8 rx_lt_sop $end
$var wire 1 9 rx_lt_eop $end
$var wire 1 : rx_lt_valid $end
$var reg 1 ; rx_lt_ready $end
$var wire 8 < rx_lt_data [7:0] $end
$var reg 4 = tx_pid [3:0] $end
$var reg 7 > tx_addr [6:0] $end
$var reg 4 ? tx_endp [3:0] $end
$var reg 1 @ tx_valid $end
$var wire 1 A tx_ready $end
$var reg 1 B tx_lt_sop $end
$var reg 1 C tx_lt_eop $end
$var reg 1 D tx_lt_valid $end
$var wire 1 E tx_lt_ready $end
$var reg 8 F tx_lt_data [7:0] $end
$var reg 1 G tx_lt_cancle $end
$var reg 10 H i [9:0] $end
$var reg 11 I d [10:0] $end
$var wire 5 J c_out [4:0] $end
$var reg 10 K j [9:0] $end
$var reg 10 L num0 [9:0] $end
$var reg 5 M cnt [4:0] $end
$var reg 2 N abc [1:0] $end
$scope module usb_link_u0 $end
$var wire 1 O clk $end
$var wire 1 P rst_n $end
$var wire 7 Q self_addr [6:0] $end
$var wire 1 R ms $end
$var wire 16 S time_threshold [15:0] $end
$var wire 6 T delay_threshole [5:0] $end
$var wire 1 ' crc5_err $end
$var wire 1 ( time_out $end
$var wire 1 ) d_oe $end
$var wire 1 U rx_lp_sop $end
$var wire 1 V rx_lp_eop $end
$var wire 1 W rx_lp_valid $end
$var wire 1 - rx_lp_ready $end
$var wire 8 X rx_lp_data [7:0] $end
$var wire 1 / tx_lp_sop $end
$var wire 1 0 tx_lp_eop $end
$var wire 1 1 tx_lp_valid $end
$var wire 1 Y tx_lp_ready $end
$var wire 8 3 tx_lp_data [7:0] $end
$var wire 1 4 tx_lp_cancle $end
$var wire 1 5 rx_pid_en $end
$var wire 4 6 rx_pid [3:0] $end
$var wire 4 7 rx_endp [3:0] $end
$var wire 1 8 rx_lt_sop $end
$var wire 1 9 rx_lt_eop $end
$var wire 1 : rx_lt_valid $end
$var wire 1 Z rx_lt_ready $end
$var wire 8 < rx_lt_data [7:0] $end
$var wire 4 [ tx_pid [3:0] $end
$var wire 7 \ tx_addr [6:0] $end
$var wire 4 ] tx_endp [3:0] $end
$var wire 1 ^ tx_valid $end
$var wire 1 A tx_ready $end
$var wire 1 _ tx_lt_sop $end
$var wire 1 ` tx_lt_eop $end
$var wire 1 a tx_lt_valid $end
$var wire 1 E tx_lt_ready $end
$var wire 8 b tx_lt_data [7:0] $end
$var wire 1 c tx_lt_cancle $end
$var wire 1 d rx_handshake_on $end
$var wire 1 e rx_sop $end
$var wire 1 f rx_eop $end
$var wire 1 g rx_valid $end
$var wire 1 h rx_ready $end
$var wire 8 i rx_data [7:0] $end
$var wire 1 j rx_data_on $end
$var wire 1 k rx_sop_en $end
$var wire 1 l rx_lt_eop_en $end
$var wire 1 m tx_to_sop $end
$var wire 1 n tx_to_eop $end
$var wire 1 o tx_to_valid $end
$var wire 1 p tx_to_ready $end
$var wire 8 q tx_to_data [7:0] $end
$var wire 1 r tx_con_pid_en $end
$var wire 4 s tx_con_pid [3:0] $end
$var wire 1 t tx_data_on $end
$var wire 1 u tx_lp_eop_en $end
$scope module crc5_ru_u0 $end
$var wire 1 O clk $end
$var wire 1 P rst_n $end
$var wire 7 Q self_addr [6:0] $end
$var wire 1 d rx_handshake_on $end
$var reg 1 v crc5_err $end
$var wire 1 U rx_lp_sop $end
$var wire 1 V rx_lp_eop $end
$var wire 1 W rx_lp_valid $end
$var wire 1 - rx_lp_ready $end
$var wire 8 X rx_lp_data [7:0] $end
$var reg 1 w rx_pid_en $end
$var reg 4 x rx_pid [3:0] $end
$var reg 4 y rx_endp [3:0] $end
$var wire 1 e rx_sop $end
$var wire 1 f rx_eop $end
$var wire 1 g rx_valid $end
$var wire 1 h rx_ready $end
$var wire 8 i rx_data [7:0] $end
$var reg 1 z pid_ok $end
$var wire 1 { pid_h_l_ok $end
$var wire 1 | pid_is_not_data $end
$var reg 1 } addr_ok $end
$var wire 1 ~ addr_match $end
$var wire 1 !! crc5_right $end
$var wire 11 "! d [10:0] $end
$var wire 5 #! c_out [4:0] $end
$scope module crc5_u0 $end
$var wire 11 "! d [10:0] $end
$var wire 5 #! c_out [4:0] $end
$var wire 5 $! c [4:0] $end
$upscope $end
$upscope $end
$scope module crc16_ru_u0 $end
$var wire 1 O clk $end
$var wire 1 P rst_n $end
$var wire 1 j rx_data_on $end
$var wire 1 k rx_sop_en $end
$var wire 1 l rx_lt_eop_en $end
$var wire 1 e rx_sop $end
$var wire 1 f rx_eop $end
$var wire 1 g rx_valid $end
$var wire 1 h rx_ready $end
$var wire 8 i rx_data [7:0] $end
$var wire 1 8 rx_lt_sop $end
$var wire 1 9 rx_lt_eop $end
$var wire 1 : rx_lt_valid $end
$var wire 1 Z rx_lt_ready $end
$var wire 8 < rx_lt_data [7:0] $end
$var reg 1 %! valid_reg $end
$var reg 1 &! sop_reg $end
$var reg 1 '! eop_reg $end
$var reg 8 (! data_reg [7:0] $end
$var wire 1 )! packet_is_data $end
$var reg 1 *! tran_en $end
$var wire 1 +! tran_buf $end
$upscope $end
$scope module crc5_tu_u0 $end
$var wire 1 O clk $end
$var wire 1 P rst_n $end
$var wire 1 m tx_to_sop $end
$var reg 1 ,! tx_to_eop $end
$var wire 1 o tx_to_valid $end
$var wire 1 p tx_to_ready $end
$var reg 8 -! tx_to_data [7:0] $end
$var reg 1 .! tx_con_pid_en $end
$var wire 4 s tx_con_pid [3:0] $end
$var wire 4 [ tx_pid [3:0] $end
$var wire 7 \ tx_addr [6:0] $end
$var wire 4 ] tx_endp [3:0] $end
$var wire 1 ^ tx_valid $end
$var reg 1 /! tx_ready $end
$var reg 4 0! pid_reg [3:0] $end
$var reg 7 1! addr_reg [6:0] $end
$var reg 4 2! endp_reg [3:0] $end
$var reg 1 3! valid_reg $end
$var reg 2 4! send_cnt [1:0] $end
$var wire 11 5! d [10:0] $end
$var wire 5 6! c_out [4:0] $end
$var wire 5 7! crc_out [4:0] $end
$scope module crc5_tx_u0 $end
$var wire 11 5! d [10:0] $end
$var wire 5 6! c_out [4:0] $end
$var wire 5 8! c [4:0] $end
$upscope $end
$upscope $end
$scope module control_tu_u0 $end
$var wire 1 O clk $end
$var wire 1 P rst_n $end
$var wire 1 m tx_to_sop $end
$var wire 1 n tx_to_eop $end
$var wire 1 o tx_to_valid $end
$var wire 1 p tx_to_ready $end
$var wire 8 q tx_to_data [7:0] $end
$var wire 1 _ tx_lt_sop $end
$var wire 1 ` tx_lt_eop $end
$var wire 1 a tx_lt_valid $end
$var wire 1 E tx_lt_ready $end
$var wire 8 b tx_lt_data [7:0] $end
$var wire 1 c tx_lt_cancle $end
$var wire 1 t tx_data_on $end
$var wire 1 u tx_lp_eop_en $end
$var reg 1 9! tx_lp_sop $end
$var reg 1 :! tx_lp_eop $end
$var reg 1 ;! tx_lp_valid $end
$var wire 1 Y tx_lp_ready $end
$var reg 8 <! tx_lp_data [7:0] $end
$var reg 1 =! tx_lp_cancle $end
$var wire 1 >! sop_buf $end
$var wire 1 ?! eop_buf $end
$var wire 1 @! valid_buf $end
$var wire 1 A! ready_buf $end
$var wire 8 B! data_buf [7:0] $end
$var wire 1 C! cancle_buf $end
$upscope $end
$scope module link_control_u0 $end
$var wire 1 O clk $end
$var wire 1 P rst_n $end
$var wire 1 5 rx_pid_en $end
$var wire 4 6 rx_pid [3:0] $end
$var wire 1 k rx_sop_en $end
$var wire 1 l rx_lt_eop_en $end
$var wire 1 r tx_con_pid_en $end
$var wire 4 s tx_con_pid [3:0] $end
$var wire 1 u tx_lp_eop_en $end
$var reg 1 D! rx_data_on $end
$var reg 1 E! rx_handshake_on $end
$var reg 1 F! tx_data_on $end
$var wire 1 R ms $end
$var wire 16 S time_threshold [15:0] $end
$var wire 6 T delay_threshole [5:0] $end
$var reg 1 G! time_out $end
$var reg 1 H! d_oe $end
$var wire 1 I! slave_receive_wt $end
$var wire 1 J! slave_receive_rt $end
$var wire 1 K! ms_receive_hs $end
$var wire 1 L! master_send_rt $end
$var wire 1 M! master_send_wt $end
$var reg 1 N! slave_has_received_rt $end
$var reg 2 O! master_finish_sending_wr [1:0] $end
$var reg 1 P! master_finish_sending_rt $end
$var reg 16 Q! timer [15:0] $end
$var reg 1 R! delay_on $end
$var reg 6 S! delay_cnt [5:0] $end
$var wire 1 T! delay_done $end
$var reg 1 U! rx_sop_en_regd $end
$var reg 1 V! master_d_oe $end
$var reg 1 W! slave_d_oe $end
$upscope $end
$upscope $end
$scope module crc5_u0 $end
$var wire 11 X! d [10:0] $end
$var wire 5 J c_out [4:0] $end
$var wire 5 Y! c [4:0] $end
$upscope $end
$upscope $end
$enddefinitions $end
$dumpvars
0!
b11111 Y!
0"
bxxxxxxxxxxx X!
0$
0(
0W!
1V!
00
0@
0`
b11110000 B!
0U!
0C!
0a
0T!
b000000 S!
0D!
0E!
1A
0R!
b00000000 b
0F!
b0000000000000000 Q!
0P!
0G!
b00 O!
0N!
0M!
0L!
0K!
0J!
0c
0H!
0I!
01
0B
0d
0e
0C
0f
0g
0)
12
0D
zh
b00000000 i
0E
0j
1A!
0k
0@!
b00000000 3
b00000000 F
0l
0?!
1m
0G
1>!
0=!
b00000000 <!
0;!
0n
0o
b0000001100100000 %
0*
0:!
04
b0000000000 H
09!
b11111 8!
1p
b11101 7!
b10111 6!
b11110000 q
bxxxxxxxxxxx I
0r
b0000 s
05
bxxxxx J
0t
0u
b00000000000 5!
b0000000000 K
0v
0w
b00 4!
0+
03!
b0000 6
bxxxxxxxxxx L
b0000 x
b0000 y
b00000 M
0z
0{
b0000 7
b11 N
1|
b0000 2!
0}
b0000000 1!
0O
0~
0!!
b0001000 #
b111111 &
b0000 0!
1/!
0,
08
0P
b00000001000 "!
b11010 #!
b0001000 Q
b11111 $!
0.!
b11110000 -!
0%!
09
0R
0&!
0,!
0'!
b0000001100100000 S
b00000000 (!
0+!
0)!
1-
0:
b111111 T
0*!
0U
1;
0V
0W
0'
b00000000 .
b00000000 <
b00000000 X
1Y
b0000 =
1Z
b0000 [
0/
b0000000 >
b0000000 \
b0000 ]
b0000 ?
0^
0_
$end
#10000
1O
1!
#20000
0O
0!
#30000
1O
1!
#40000
0O
0!
#50000
1O
1!
#60000
0O
0!
#70000
1O
1!
#80000
0O
0!
#90000
1O
1!
#92000
1"
1P
#100000
b00000001000 X!
b11010 J
b00000001000 I
b0000000011 L
0O
0!
#110000
1O
1!
#111000
1g
1e
b11100001 i
1*
1{
1,
b00100001000 "!
b00110 #!
1U
b11100001 X
1W
b11100001 .
#120000
0!
0O
#130000
b0001 x
b0001 6
1z
1!
1O
#131000
b0000000001 K
0W
0g
0,
#140000
0!
0O
#150000
1!
1O
#160000
0!
0O
#170000
1!
1O
#180000
0!
0O
#190000
1!
1O
#200000
0!
0O
#210000
1!
1O
#220000
0!
0O
#230000
1!
1O
#240000
0!
0O
#250000
1!
1O
#260000
0!
0O
#270000
1!
1O
#280000
0!
0O
#290000
1!
1O
#300000
0!
0O
#310000
1!
1O
#320000
0!
0O
#330000
1!
1O
#340000
0!
0O
#350000
1!
1O
#360000
0!
0O
#370000
1!
1O
#380000
0!
0O
#390000
1!
1O
#400000
0!
0O
#410000
1!
1O
#420000
0!
0O
#430000
1!
1O
#440000
0!
0O
#450000
1!
1O
#460000
0!
0O
#470000
1!
1O
#480000
0!
0O
#490000
1!
1O
#500000
0!
0O
#510000
1!
1O
#520000
0!
0O
#530000
1!
1O
#540000
0!
0O
#550000
1!
1O
#560000
0!
0O
#570000
1!
1O
#580000
0!
0O
#590000
1!
1O
#600000
0!
0O
#610000
1!
1O
#620000
0!
0O
#630000
1!
1O
#640000
0!
0O
#650000
1!
1O
#660000
0!
0O
#670000
1!
1O
#680000
0!
0O
#690000
1!
1O
#700000
0!
0O
#710000
1!
1O
#720000
0!
0O
#730000
1!
1O
#740000
0!
0O
#750000
1!
1O
#751000
0e
b00001000 .
1W
1,
1g
b00001000 i
b00001000 X
0{
1~
0*
0U
b11010 #!
b00000001000 "!
#760000
0!
0O
#770000
1}
1!
1O
#771000
0W
0,
b0000000010 K
0g
