vcd/case2.vcd
$date
	Fri Feb  7 10:52:58 2025

$end
$version
	Chronologic Simulation VCS Release O-2018.09-SP2_Full64
$end
$timescale
	1ps
$end
$scope module usb_link_top_tb $end
$var reg 1 ! clk $end
$var reg 1 " rst_n $end
$var reg 7 # self_addr [6:0] $end
$var reg 1 $ ms $end
$var reg 16 % time_threshold [15:0] $end
$var reg 6 & delay_threshole [5:0] $end
$var wire 1 ' crc5_err $end
$var wire 1 ( time_out $end
$var wire 1 ) d_oe $end
$var reg 1 * rx_lp_sop $end
$var reg 1 + rx_lp_eop $end
$var reg 1 , rx_lp_valid $end
$var wire 1 - rx_lp_ready $end
$var reg 8 . rx_lp_data [7:0] $end
$var wire 1 / tx_lp_sop $end
$var wire 1 0 tx_lp_eop $end
$var wire 1 1 tx_lp_valid $end
$var reg 1 2 tx_lp_ready $end
$var wire 8 3 tx_lp_data [7:0] $end
$var wire 1 4 tx_lp_cancle $end
$var wire 1 5 rx_pid_en $end
$var wire 4 6 rx_pid [3:0] $end
$var wire 4 7 rx_endp [3:0] $end
$var wire 1 8 rx_lt_sop $end
$var wire 1 9 rx_lt_eop $end
$var wire 1 : rx_lt_valid $end
$var reg 1 ; rx_lt_ready $end
$var wire 8 < rx_lt_data [7:0] $end
$var reg 4 = tx_pid [3:0] $end
$var reg 7 > tx_addr [6:0] $end
$var reg 4 ? tx_endp [3:0] $end
$var reg 1 @ tx_valid $end
$var wire 1 A tx_ready $end
$var reg 1 B tx_lt_sop $end
$var reg 1 C tx_lt_eop $end
$var reg 1 D tx_lt_valid $end
$var wire 1 E tx_lt_ready $end
$var reg 8 F tx_lt_data [7:0] $end
$var reg 1 G tx_lt_cancle $end
$var reg 10 H i [9:0] $end
$var reg 11 I d [10:0] $end
$var wire 5 J c_out [4:0] $end
$var reg 10 K j [9:0] $end
$var reg 10 L num0 [9:0] $end
$var reg 5 M cnt [4:0] $end
$var reg 2 N abc [1:0] $end
$scope module usb_link_u0 $end
$var wire 1 O clk $end
$var wire 1 P rst_n $end
$var wire 7 Q self_addr [6:0] $end
$var wire 1 R ms $end
$var wire 16 S time_threshold [15:0] $end
$var wire 6 T delay_threshole [5:0] $end
$var wire 1 ' crc5_err $end
$var wire 1 ( time_out $end
$var wire 1 ) d_oe $end
$var wire 1 U rx_lp_sop $end
$var wire 1 V rx_lp_eop $end
$var wire 1 W rx_lp_valid $end
$var wire 1 - rx_lp_ready $end
$var wire 8 X rx_lp_data [7:0] $end
$var wire 1 / tx_lp_sop $end
$var wire 1 0 tx_lp_eop $end
$var wire 1 1 tx_lp_valid $end
$var wire 1 Y tx_lp_ready $end
$var wire 8 3 tx_lp_data [7:0] $end
$var wire 1 4 tx_lp_cancle $end
$var wire 1 5 rx_pid_en $end
$var wire 4 6 rx_pid [3:0] $end
$var wire 4 7 rx_endp [3:0] $end
$var wire 1 8 rx_lt_sop $end
$var wire 1 9 rx_lt_eop $end
$var wire 1 : rx_lt_valid $end
$var wire 1 Z rx_lt_ready $end
$var wire 8 < rx_lt_data [7:0] $end
$var wire 4 [ tx_pid [3:0] $end
$var wire 7 \ tx_addr [6:0] $end
$var wire 4 ] tx_endp [3:0] $end
$var wire 1 ^ tx_valid $end
$var wire 1 A tx_ready $end
$var wire 1 _ tx_lt_sop $end
$var wire 1 ` tx_lt_eop $end
$var wire 1 a tx_lt_valid $end
$var wire 1 E tx_lt_ready $end
$var wire 8 b tx_lt_data [7:0] $end
$var wire 1 c tx_lt_cancle $end
$var wire 1 d rx_handshake_on $end
$var wire 1 e rx_sop $end
$var wire 1 f rx_eop $end
$var wire 1 g rx_valid $end
$var wire 1 h rx_ready $end
$var wire 8 i rx_data [7:0] $end
$var wire 1 j rx_data_on $end
$var wire 1 k rx_sop_en $end
$var wire 1 l rx_lt_eop_en $end
$var wire 1 m tx_to_sop $end
$var wire 1 n tx_to_eop $end
$var wire 1 o tx_to_valid $end
$var wire 1 p tx_to_ready $end
$var wire 8 q tx_to_data [7:0] $end
$var wire 1 r tx_con_pid_en $end
$var wire 4 s tx_con_pid [3:0] $end
$var wire 1 t tx_data_on $end
$var wire 1 u tx_lp_eop_en $end
$scope module crc5_ru_u0 $end
$var wire 1 O clk $end
$var wire 1 P rst_n $end
$var wire 7 Q self_addr [6:0] $end
$var wire 1 d rx_handshake_on $end
$var reg 1 v crc5_err $end
$var wire 1 U rx_lp_sop $end
$var wire 1 V rx_lp_eop $end
$var wire 1 W rx_lp_valid $end
$var wire 1 - rx_lp_ready $end
$var wire 8 X rx_lp_data [7:0] $end
$var reg 1 w rx_pid_en $end
$var reg 4 x rx_pid [3:0] $end
$var reg 4 y rx_endp [3:0] $end
$var wire 1 e rx_sop $end
$var wire 1 f rx_eop $end
$var wire 1 g rx_valid $end
$var wire 1 h rx_ready $end
$var wire 8 i rx_data [7:0] $end
$var reg 1 z pid_ok $end
$var wire 1 { pid_h_l_ok $end
$var wire 1 | pid_is_not_data $end
$var reg 1 } addr_ok $end
$var wire 1 ~ addr_match $end
$var wire 1 !! crc5_right $end
$var wire 11 "! d [10:0] $end
$var wire 5 #! c_out [4:0] $end
$scope module crc5_u0 $end
$var wire 11 "! d [10:0] $end
$var wire 5 #! c_out [4:0] $end
$var wire 5 $! c [4:0] $end
$upscope $end
$upscope $end
$scope module crc16_ru_u0 $end
$var wire 1 O clk $end
$var wire 1 P rst_n $end
$var wire 1 j rx_data_on $end
$var wire 1 k rx_sop_en $end
$var wire 1 l rx_lt_eop_en $end
$var wire 1 e rx_sop $end
$var wire 1 f rx_eop $end
$var wire 1 g rx_valid $end
$var wire 1 h rx_ready $end
$var wire 8 i rx_data [7:0] $end
$var wire 1 8 rx_lt_sop $end
$var wire 1 9 rx_lt_eop $end
$var wire 1 : rx_lt_valid $end
$var wire 1 Z rx_lt_ready $end
$var wire 8 < rx_lt_data [7:0] $end
$var reg 1 %! valid_reg $end
$var reg 1 &! sop_reg $end
$var reg 1 '! eop_reg $end
$var reg 8 (! data_reg [7:0] $end
$var wire 1 )! packet_is_data $end
$var reg 1 *! tran_en $end
$var wire 1 +! tran_buf $end
$upscope $end
$scope module crc5_tu_u0 $end
$var wire 1 O clk $end
$var wire 1 P rst_n $end
$var wire 1 m tx_to_sop $end
$var reg 1 ,! tx_to_eop $end
$var wire 1 o tx_to_valid $end
$var wire 1 p tx_to_ready $end
$var reg 8 -! tx_to_data [7:0] $end
$var reg 1 .! tx_con_pid_en $end
$var wire 4 s tx_con_pid [3:0] $end
$var wire 4 [ tx_pid [3:0] $end
$var wire 7 \ tx_addr [6:0] $end
$var wire 4 ] tx_endp [3:0] $end
$var wire 1 ^ tx_valid $end
$var reg 1 /! tx_ready $end
$var reg 4 0! pid_reg [3:0] $end
$var reg 7 1! addr_reg [6:0] $end
$var reg 4 2! endp_reg [3:0] $end
$var reg 1 3! valid_reg $end
$var reg 2 4! send_cnt [1:0] $end
$var wire 11 5! d [10:0] $end
$var wire 5 6! c_out [4:0] $end
$var wire 5 7! crc_out [4:0] $end
$scope module crc5_tx_u0 $end
$var wire 11 5! d [10:0] $end
$var wire 5 6! c_out [4:0] $end
$var wire 5 8! c [4:0] $end
$upscope $end
$upscope $end
$scope module control_tu_u0 $end
$var wire 1 O clk $end
$var wire 1 P rst_n $end
$var wire 1 m tx_to_sop $end
$var wire 1 n tx_to_eop $end
$var wire 1 o tx_to_valid $end
$var wire 1 p tx_to_ready $end
$var wire 8 q tx_to_data [7:0] $end
$var wire 1 _ tx_lt_sop $end
$var wire 1 ` tx_lt_eop $end
$var wire 1 a tx_lt_valid $end
$var wire 1 E tx_lt_ready $end
$var wire 8 b tx_lt_data [7:0] $end
$var wire 1 c tx_lt_cancle $end
$var wire 1 t tx_data_on $end
$var wire 1 u tx_lp_eop_en $end
$var reg 1 9! tx_lp_sop $end
$var reg 1 :! tx_lp_eop $end
$var reg 1 ;! tx_lp_valid $end
$var wire 1 Y tx_lp_ready $end
$var reg 8 <! tx_lp_data [7:0] $end
$var reg 1 =! tx_lp_cancle $end
$var wire 1 >! sop_buf $end
$var wire 1 ?! eop_buf $end
$var wire 1 @! valid_buf $end
$var wire 1 A! ready_buf $end
$var wire 8 B! data_buf [7:0] $end
$var wire 1 C! cancle_buf $end
$upscope $end
$scope module link_control_u0 $end
$var wire 1 O clk $end
$var wire 1 P rst_n $end
$var wire 1 5 rx_pid_en $end
$var wire 4 6 rx_pid [3:0] $end
$var wire 1 k rx_sop_en $end
$var wire 1 l rx_lt_eop_en $end
$var wire 1 r tx_con_pid_en $end
$var wire 4 s tx_con_pid [3:0] $end
$var wire 1 u tx_lp_eop_en $end
$var reg 1 D! rx_data_on $end
$var reg 1 E! rx_handshake_on $end
$var reg 1 F! tx_data_on $end
$var wire 1 R ms $end
$var wire 16 S time_threshold [15:0] $end
$var wire 6 T delay_threshole [5:0] $end
$var reg 1 G! time_out $end
$var reg 1 H! d_oe $end
$var wire 1 I! slave_receive_wt $end
$var wire 1 J! slave_receive_rt $end
$var wire 1 K! ms_receive_hs $end
$var wire 1 L! master_send_rt $end
$var wire 1 M! master_send_wt $end
$var reg 1 N! slave_has_received_rt $end
$var reg 2 O! master_finish_sending_wr [1:0] $end
$var reg 1 P! master_finish_sending_rt $end
$var reg 16 Q! timer [15:0] $end
$var reg 1 R! delay_on $end
$var reg 6 S! delay_cnt [5:0] $end
$var wire 1 T! delay_done $end
$var reg 1 U! rx_sop_en_regd $end
$var reg 1 V! master_d_oe $end
$var reg 1 W! slave_d_oe $end
$upscope $end
$upscope $end
$scope module crc5_u0 $end
$var wire 11 X! d [10:0] $end
$var wire 5 J c_out [4:0] $end
$var wire 5 Y! c [4:0] $end
$upscope $end
$upscope $end
$enddefinitions $end
$dumpvars
0!
b11111 Y!
0"
bxxxxxxxxxxx X!
1$
0(
0W!
1V!
0U!
00
0T!
0@
0`
b11110000 B!
0C!
0a
b000000 S!
0D!
0E!
0R!
1A
b00000000 b
0F!
0G!
0c
b0000000000000000 Q!
0P!
1H!
b00 O!
0I!
01
0N!
0B
0d
0J!
0K!
0e
0L!
0M!
0C
0f
0g
1)
12
0D
zh
b00000000 i
0E
0j
0k
b00000000 3
b00000000 F
0l
1m
0G
0n
0o
b0000001100100000 %
0*
04
b0000000000 H
1p
b11110000 q
bxxxxxxxxxxx I
0r
b0000 s
05
bxxxxx J
0t
0u
b0000000000 K
0v
0w
0+
b0000 6
bxxxxxxxxxx L
b0000 x
b0000 y
b00000 M
0z
0{
1A!
b0000 7
b11 N
0@!
1|
0}
0?!
1>!
0O
0~
0!!
0=!
b00000000 <!
0;!
b0001000 #
b111111 &
0:!
09!
0,
08
0P
b11111 8!
b00000001000 "!
b11101 7!
b11010 #!
b0001000 Q
b11111 $!
b10111 6!
b00000000000 5!
0%!
09
b00 4!
03!
1R
0&!
b0000 2!
b0000000 1!
b0000 0!
0'!
b0000001100100000 S
1/!
0.!
b00000000 (!
0)!
b11110000 -!
0,!
1-
0:
b111111 T
0*!
0+!
0U
1;
0V
0W
0'
b00000000 .
b00000000 <
b00000000 X
1Y
b0000 =
1Z
b0000 [
0/
b0000000 >
b0000000 \
b0000 ]
b0000 ?
0^
0_
$end
#10000
1O
1!
#20000
0O
0!
#30000
1O
1!
#40000
0O
0!
#50000
1O
1!
#60000
0O
0!
#70000
1O
1!
#80000
0O
0!
#90000
1O
1!
#92000
1"
1P
#100000
0O
0!
b0001 =
b0001 [
b0001000 >
b0001000 \
#110000
1O
1!
#111000
1@
1^
#120000
0O
0!
#130000
b11100001 q
1r
0A
b11100001 B!
1M!
b0001 s
1o
1O
1!
1@!
b0001000 1!
b11010 6!
13!
1.!
b11100001 -!
b00000001000 5!
0/!
b01011 7!
b0001 0!
#131000
0^
0@
b10 N
#140000
0O
0!
#150000
b00001000 q
b11100001 3
0r
11
b01 O!
0m
0.!
1O
1!
b00001000 -!
0>!
b00001000 B!
0M!
b11100001 <!
b01 4!
19!
1;!
1/
#160000
0O
0!
#170000
1O
1!
0/
b01011000 q
1?!
1n
b01011000 -!
b00001000 3
02
09!
b01011000 B!
0A!
1,!
b10 4!
b00001000 <!
0p
0Y
#180000
0!
0O
#190000
b00001 M
1!
1O
#200000
0!
0O
#210000
b00010 M
1!
1O
#220000
0!
0O
#230000
b00011 M
1!
1O
#240000
0!
0O
#250000
b00100 M
1!
1O
#260000
0!
0O
#270000
b00101 M
1!
1O
#280000
0!
0O
#290000
b00110 M
1!
1O
#300000
0!
0O
#310000
b00111 M
1!
1O
#320000
0!
0O
#330000
b01000 M
1!
1O
#340000
0!
0O
#350000
b01001 M
1!
1O
#360000
0!
0O
#370000
b01010 M
1!
1O
#380000
0!
0O
#390000
b01011 M
1!
1O
#400000
0!
0O
#410000
b01100 M
1!
1O
#420000
0!
0O
#430000
b01101 M
1!
1O
#440000
0!
0O
#450000
b01110 M
1!
1O
#460000
0!
0O
#470000
b01111 M
1!
1O
#480000
0!
0O
#490000
b10000 M
1!
1O
#500000
0!
0O
#510000
b10001 M
1!
1O
#520000
0!
0O
#530000
b10010 M
1!
1O
#540000
0!
0O
#550000
b10011 M
1!
1O
#560000
0!
0O
#570000
b10100 M
1!
1O
#580000
0!
0O
#590000
b10101 M
1!
1O
#600000
0!
0O
#610000
b10110 M
1!
1O
#620000
0!
0O
#630000
b10111 M
1!
1O
#640000
0!
0O
#650000
b11000 M
1!
1O
#660000
0!
0O
#670000
b11001 M
1!
1O
#680000
0!
0O
#690000
b11010 M
1!
1O
#700000
0!
0O
#710000
b11011 M
1!
1O
#720000
0!
0O
#730000
b11100 M
1!
1O
#740000
0!
0O
#750000
b11101 M
1!
1O
#760000
0!
0O
#770000
b11110 M
1!
1O
#780000
0!
0O
#790000
b11111 M
1!
1O
#800000
0!
0O
#810000
1!
1O
1A!
1p
b00000 M
1Y
12
#820000
0O
0!
#830000
1O
1!
02
b11100001 q
b11100001 -!
0o
b01 N
0p
0A!
0Y
1m
10
b01011000 <!
b01011000 3
1/!
03!
1A
0n
1>!
0@!
b00 4!
0,!
0?!
b11100001 B!
1:!
#840000
0O
0!
#850000
b00001 M
1O
1!
#860000
0O
0!
#870000
b00010 M
1O
1!
#880000
0O
0!
#890000
b00011 M
1O
1!
#900000
0O
0!
#910000
b00100 M
1O
1!
#920000
0O
0!
#930000
b00101 M
1O
1!
#940000
0O
0!
#950000
b00110 M
1O
1!
#960000
0O
0!
#970000
b00111 M
1O
1!
#980000
0O
0!
#990000
b01000 M
1O
1!
#1000000
0O
0!
#1010000
b01001 M
1O
1!
#1020000
0O
0!
#1030000
b01010 M
1O
1!
#1040000
0O
0!
#1050000
b01011 M
1O
1!
#1060000
0O
0!
#1070000
b01100 M
1O
1!
#1080000
0O
0!
#1090000
b01101 M
1O
1!
#1100000
0O
0!
#1110000
b01110 M
1O
1!
#1120000
0O
0!
#1130000
b01111 M
1O
1!
#1140000
0O
0!
#1150000
b10000 M
1O
1!
#1160000
0O
0!
#1170000
b10001 M
1O
1!
#1180000
0O
0!
#1190000
b10010 M
1O
1!
#1200000
0O
0!
#1210000
b10011 M
1O
1!
#1220000
0O
0!
#1230000
b10100 M
1O
1!
#1240000
0O
0!
#1250000
b10101 M
1O
1!
#1260000
0O
0!
#1270000
b10110 M
1O
1!
#1280000
0O
0!
#1290000
b10111 M
1O
1!
#1300000
0O
0!
#1310000
b11000 M
1O
1!
#1320000
0O
0!
#1330000
b11001 M
1O
1!
#1340000
0O
0!
#1350000
b11010 M
1O
1!
#1360000
0O
0!
#1370000
b11011 M
1O
1!
#1380000
0O
0!
#1390000
b11100 M
1O
1!
#1400000
0O
0!
#1410000
b11101 M
1O
1!
#1420000
0O
0!
#1430000
b11110 M
1O
1!
#1440000
0O
0!
#1450000
b11111 M
1O
1!
#1460000
0O
0!
#1470000
12
1u
b00000 M
1O
1!
1p
1A!
1Y
#1480000
0O
0!
#1490000
1O
1!
0Y
0p
0;!
1F!
b00000000 B!
02
0>!
1t
0u
b10 O!
01
1E
#1500000
0O
0!
#1510000
b00001 M
1O
1!
#1520000
0O
0!
#1530000
b00010 M
1O
1!
#1540000
0O
0!
#1550000
b00011 M
1O
1!
#1560000
0O
0!
#1570000
b00100 M
1O
1!
#1580000
0O
0!
#1590000
b00101 M
1O
1!
#1600000
0O
0!
#1610000
b00110 M
1O
1!
#1620000
0O
0!
#1630000
b00111 M
1O
1!
#1640000
0O
0!
#1650000
b01000 M
1O
1!
#1660000
0O
0!
#1670000
b01001 M
1O
1!
#1680000
0O
0!
#1690000
b01010 M
1O
1!
#1700000
0O
0!
#1710000
b01011 M
1O
1!
#1720000
0O
0!
#1730000
b01100 M
1O
1!
#1740000
0O
0!
#1750000
b01101 M
1O
1!
#1760000
0O
0!
#1770000
b01110 M
1O
1!
#1780000
0O
0!
#1790000
b01111 M
1O
1!
#1800000
0O
0!
#1810000
b10000 M
1O
1!
#1820000
0O
0!
#1830000
b10001 M
1O
1!
#1840000
0O
0!
#1850000
b10010 M
1O
1!
#1860000
0O
0!
#1870000
b10011 M
1O
1!
#1880000
0O
0!
#1890000
b10100 M
1O
1!
#1900000
0O
0!
#1910000
b10101 M
1O
1!
#1920000
0O
0!
#1930000
b10110 M
1O
1!
#1940000
0O
0!
#1950000
b10111 M
1O
1!
#1960000
0O
0!
#1970000
b11000 M
1O
1!
#1980000
0O
0!
#1990000
b11001 M
1O
1!
#2000000
0O
0!
#2010000
b11010 M
1O
1!
#2020000
0O
0!
#2030000
b11011 M
1O
1!
#2040000
0O
0!
#2050000
b11100 M
1O
1!
#2060000
0O
0!
#2070000
b11101 M
1O
1!
#2080000
0O
0!
#2090000
b11110 M
1O
1!
#2100000
0O
0!
#2110000
b11111 M
1O
1!
#2120000
0O
0!
#2130000
12
1Y
b00000 M
1O
1!
