vcd/case3.vcd
$date
	Fri Feb  7 10:53:33 2025

$end
$version
	Chronologic Simulation VCS Release O-2018.09-SP2_Full64
$end
$timescale
	1ps
$end
$scope module usb_link_top_tb $end
$var reg 1 ! clk $end
$var reg 1 " rst_n $end
$var reg 7 # self_addr [6:0] $end
$var reg 1 $ ms $end
$var reg 16 % time_threshold [15:0] $end
$var reg 6 & delay_threshole [5:0] $end
$var wire 1 ' crc5_err $end
$var wire 1 ( time_out $end
$var wire 1 ) d_oe $end
$var reg 1 * rx_lp_sop $end
$var reg 1 + rx_lp_eop $end
$var reg 1 , rx_lp_valid $end
$var wire 1 - rx_lp_ready $end
$var reg 8 . rx_lp_data [7:0] $end
$var wire 1 / tx_lp_sop $end
$var wire 1 0 tx_lp_eop $end
$var wire 1 1 tx_lp_valid $end
$var reg 1 2 tx_lp_ready $end
$var wire 8 3 tx_lp_data [7:0] $end
$var wire 1 4 tx_lp_cancle $end
$var wire 1 5 rx_pid_en $end
$var wire 4 6 rx_pid [3:0] $end
$var wire 4 7 rx_endp [3:0] $end
$var wire 1 8 rx_lt_sop $end
$var wire 1 9 rx_lt_eop $end
$var wire 1 : rx_lt_valid $end
$var reg 1 ; rx_lt_ready $end
$var wire 8 < rx_lt_data [7:0] $end
$var reg 4 = tx_pid [3:0] $end
$var reg 7 > tx_addr [6:0] $end
$var reg 4 ? tx_endp [3:0] $end
$var reg 1 @ tx_valid $end
$var wire 1 A tx_ready $end
$var reg 1 B tx_lt_sop $end
$var reg 1 C tx_lt_eop $end
$var reg 1 D tx_lt_valid $end
$var wire 1 E tx_lt_ready $end
$var reg 8 F tx_lt_data [7:0] $end
$var reg 1 G tx_lt_cancle $end
$var reg 10 H i [9:0] $end
$var reg 11 I d [10:0] $end
$var wire 5 J c_out [4:0] $end
$var reg 10 K j [9:0] $end
$var reg 10 L num0 [9:0] $end
$var reg 5 M cnt [4:0] $end
$var reg 2 N abc [1:0] $end
$scope module usb_link_u0 $end
$var wire 1 O clk $end
$var wire 1 P rst_n $end
$var wire 7 Q self_addr [6:0] $end
$var wire 1 R ms $end
$var wire 16 S time_threshold [15:0] $end
$var wire 6 T delay_threshole [5:0] $end
$var wire 1 ' crc5_err $end
$var wire 1 ( time_out $end
$var wire 1 ) d_oe $end
$var wire 1 U rx_lp_sop $end
$var wire 1 V rx_lp_eop $end
$var wire 1 W rx_lp_valid $end
$var wire 1 - rx_lp_ready $end
$var wire 8 X rx_lp_data [7:0] $end
$var wire 1 / tx_lp_sop $end
$var wire 1 0 tx_lp_eop $end
$var wire 1 1 tx_lp_valid $end
$var wire 1 Y tx_lp_ready $end
$var wire 8 3 tx_lp_data [7:0] $end
$var wire 1 4 tx_lp_cancle $end
$var wire 1 5 rx_pid_en $end
$var wire 4 6 rx_pid [3:0] $end
$var wire 4 7 rx_endp [3:0] $end
$var wire 1 8 rx_lt_sop $end
$var wire 1 9 rx_lt_eop $end
$var wire 1 : rx_lt_valid $end
$var wire 1 Z rx_lt_ready $end
$var wire 8 < rx_lt_data [7:0] $end
$var wire 4 [ tx_pid [3:0] $end
$var wire 7 \ tx_addr [6:0] $end
$var wire 4 ] tx_endp [3:0] $end
$var wire 1 ^ tx_valid $end
$var wire 1 A tx_ready $end
$var wire 1 _ tx_lt_sop $end
$var wire 1 ` tx_lt_eop $end
$var wire 1 a tx_lt_valid $end
$var wire 1 E tx_lt_ready $end
$var wire 8 b tx_lt_data [7:0] $end
$var wire 1 c tx_lt_cancle $end
$var wire 1 d rx_handshake_on $end
$var wire 1 e rx_sop $end
$var wire 1 f rx_eop $end
$var wire 1 g rx_valid $end
$var wire 1 h rx_ready $end
$var wire 8 i rx_data [7:0] $end
$var wire 1 j rx_data_on $end
$var wire 1 k rx_sop_en $end
$var wire 1 l rx_lt_eop_en $end
$var wire 1 m tx_to_sop $end
$var wire 1 n tx_to_eop $end
$var wire 1 o tx_to_valid $end
$var wire 1 p tx_to_ready $end
$var wire 8 q tx_to_data [7:0] $end
$var wire 1 r tx_con_pid_en $end
$var wire 4 s tx_con_pid [3:0] $end
$var wire 1 t tx_data_on $end
$var wire 1 u tx_lp_eop_en $end
$scope module crc5_ru_u0 $end
$var wire 1 O clk $end
$var wire 1 P rst_n $end
$var wire 7 Q self_addr [6:0] $end
$var wire 1 d rx_handshake_on $end
$var reg 1 v crc5_err $end
$var wire 1 U rx_lp_sop $end
$var wire 1 V rx_lp_eop $end
$var wire 1 W rx_lp_valid $end
$var wire 1 - rx_lp_ready $end
$var wire 8 X rx_lp_data [7:0] $end
$var reg 1 w rx_pid_en $end
$var reg 4 x rx_pid [3:0] $end
$var reg 4 y rx_endp [3:0] $end
$var wire 1 e rx_sop $end
$var wire 1 f rx_eop $end
$var wire 1 g rx_valid $end
$var wire 1 h rx_ready $end
$var wire 8 i rx_data [7:0] $end
$var reg 1 z pid_ok $end
$var wire 1 { pid_h_l_ok $end
$var wire 1 | pid_is_not_data $end
$var reg 1 } addr_ok $end
$var wire 1 ~ addr_match $end
$var wire 1 !! crc5_right $end
$var wire 11 "! d [10:0] $end
$var wire 5 #! c_out [4:0] $end
$scope module crc5_u0 $end
$var wire 11 "! d [10:0] $end
$var wire 5 #! c_out [4:0] $end
$var wire 5 $! c [4:0] $end
$upscope $end
$upscope $end
$scope module crc16_ru_u0 $end
$var wire 1 O clk $end
$var wire 1 P rst_n $end
$var wire 1 j rx_data_on $end
$var wire 1 k rx_sop_en $end
$var wire 1 l rx_lt_eop_en $end
$var wire 1 e rx_sop $end
$var wire 1 f rx_eop $end
$var wire 1 g rx_valid $end
$var wire 1 h rx_ready $end
$var wire 8 i rx_data [7:0] $end
$var wire 1 8 rx_lt_sop $end
$var wire 1 9 rx_lt_eop $end
$var wire 1 : rx_lt_valid $end
$var wire 1 Z rx_lt_ready $end
$var wire 8 < rx_lt_data [7:0] $end
$var reg 1 %! valid_reg $end
$var reg 1 &! sop_reg $end
$var reg 1 '! eop_reg $end
$var reg 8 (! data_reg [7:0] $end
$var wire 1 )! packet_is_data $end
$var reg 1 *! tran_en $end
$var wire 1 +! tran_buf $end
$upscope $end
$scope module crc5_tu_u0 $end
$var wire 1 O clk $end
$var wire 1 P rst_n $end
$var wire 1 m tx_to_sop $end
$var reg 1 ,! tx_to_eop $end
$var wire 1 o tx_to_valid $end
$var wire 1 p tx_to_ready $end
$var reg 8 -! tx_to_data [7:0] $end
$var reg 1 .! tx_con_pid_en $end
$var wire 4 s tx_con_pid [3:0] $end
$var wire 4 [ tx_pid [3:0] $end
$var wire 7 \ tx_addr [6:0] $end
$var wire 4 ] tx_endp [3:0] $end
$var wire 1 ^ tx_valid $end
$var reg 1 /! tx_ready $end
$var reg 4 0! pid_reg [3:0] $end
$var reg 7 1! addr_reg [6:0] $end
$var reg 4 2! endp_reg [3:0] $end
$var reg 1 3! valid_reg $end
$var reg 2 4! send_cnt [1:0] $end
$var wire 11 5! d [10:0] $end
$var wire 5 6! c_out [4:0] $end
$var wire 5 7! crc_out [4:0] $end
$scope module crc5_tx_u0 $end
$var wire 11 5! d [10:0] $end
$var wire 5 6! c_out [4:0] $end
$var wire 5 8! c [4:0] $end
$upscope $end
$upscope $end
$scope module control_tu_u0 $end
$var wire 1 O clk $end
$var wire 1 P rst_n $end
$var wire 1 m tx_to_sop $end
$var wire 1 n tx_to_eop $end
$var wire 1 o tx_to_valid $end
$var wire 1 p tx_to_ready $end
$var wire 8 q tx_to_data [7:0] $end
$var wire 1 _ tx_lt_sop $end
$var wire 1 ` tx_lt_eop $end
$var wire 1 a tx_lt_valid $end
$var wire 1 E tx_lt_ready $end
$var wire 8 b tx_lt_data [7:0] $end
$var wire 1 c tx_lt_cancle $end
$var wire 1 t tx_data_on $end
$var wire 1 u tx_lp_eop_en $end
$var reg 1 9! tx_lp_sop $end
$var reg 1 :! tx_lp_eop $end
$var reg 1 ;! tx_lp_valid $end
$var wire 1 Y tx_lp_ready $end
$var reg 8 <! tx_lp_data [7:0] $end
$var reg 1 =! tx_lp_cancle $end
$var wire 1 >! sop_buf $end
$var wire 1 ?! eop_buf $end
$var wire 1 @! valid_buf $end
$var wire 1 A! ready_buf $end
$var wire 8 B! data_buf [7:0] $end
$var wire 1 C! cancle_buf $end
$upscope $end
$scope module link_control_u0 $end
$var wire 1 O clk $end
$var wire 1 P rst_n $end
$var wire 1 5 rx_pid_en $end
$var wire 4 6 rx_pid [3:0] $end
$var wire 1 k rx_sop_en $end
$var wire 1 l rx_lt_eop_en $end
$var wire 1 r tx_con_pid_en $end
$var wire 4 s tx_con_pid [3:0] $end
$var wire 1 u tx_lp_eop_en $end
$var reg 1 D! rx_data_on $end
$var reg 1 E! rx_handshake_on $end
$var reg 1 F! tx_data_on $end
$var wire 1 R ms $end
$var wire 16 S time_threshold [15:0] $end
$var wire 6 T delay_threshole [5:0] $end
$var reg 1 G! time_out $end
$var reg 1 H! d_oe $end
$var wire 1 I! slave_receive_wt $end
$var wire 1 J! slave_receive_rt $end
$var wire 1 K! ms_receive_hs $end
$var wire 1 L! master_send_rt $end
$var wire 1 M! master_send_wt $end
$var reg 1 N! slave_has_received_rt $end
$var reg 2 O! master_finish_sending_wr [1:0] $end
$var reg 1 P! master_finish_sending_rt $end
$var reg 16 Q! timer [15:0] $end
$var reg 1 R! delay_on $end
$var reg 6 S! delay_cnt [5:0] $end
$var wire 1 T! delay_done $end
$var reg 1 U! rx_sop_en_regd $end
$var reg 1 V! master_d_oe $end
$var reg 1 W! slave_d_oe $end
$upscope $end
$upscope $end
$scope module crc5_u0 $end
$var wire 11 X! d [10:0] $end
$var wire 5 J c_out [4:0] $end
$var wire 5 Y! c [4:0] $end
$upscope $end
$upscope $end
$enddefinitions $end
$dumpvars
0!
b11111 Y!
0"
bxxxxxxxxxxx X!
1$
0(
0W!
1V!
00
0@
0`
b11110000 B!
0U!
0C!
0a
0T!
b000000 S!
0D!
0E!
1A
0R!
b00000000 b
0F!
b0000000000000000 Q!
0P!
0G!
0c
b00 O!
0N!
0M!
0L!
0K!
1H!
0I!
01
0B
0d
0J!
0e
0C
0f
0g
1)
12
0D
zh
b00000000 i
0E
0j
0k
b00000000 3
b00000000 F
0l
1A!
1m
0G
0n
0@!
0o
b0000001100100000 %
0*
0?!
04
b0000000000 H
1>!
0=!
1p
b00000000 <!
b11110000 q
bxxxxxxxxxxx I
0r
b0000 s
05
bxxxxx J
0;!
0t
0u
0:!
b0000000000 K
0v
0w
09!
b11111 8!
0+
b11101 7!
b0000 6
bxxxxxxxxxx L
b0000 x
b0000 y
b00000 M
0z
0{
b10111 6!
b0000 7
b11 N
1|
0}
0O
0~
0!!
b0001000 #
b00000000000 5!
b00 4!
b111111 &
0,
03!
08
0P
b00000001000 "!
b11010 #!
b0001000 Q
b11111 $!
b0000 2!
b0000000 1!
b0000 0!
0%!
09
1R
0&!
1/!
0'!
b0000001100100000 S
b00000000 (!
0.!
0)!
1-
0:
b11110000 -!
b111111 T
0*!
0+!
0U
0,!
1;
0V
0W
0'
b00000000 .
b00000000 <
b00000000 X
1Y
b0000 =
1Z
b0000 [
0/
b0000000 >
b0000000 \
b0000 ]
b0000 ?
0^
0_
$end
#10000
1O
1!
#20000
0O
0!
#30000
1O
1!
#40000
0O
0!
#50000
1O
1!
#60000
0O
0!
#70000
1O
1!
#80000
0O
0!
#90000
1O
1!
#92000
1"
1P
#100000
0!
b1001 [
b0001000 >
b0001000 \
0O
b1001 =
#110000
1!
1O
#111000
1^
1@
#120000
0!
0O
#130000
b01101001 B!
0A
1L!
1o
1@!
b01101001 q
1r
b1001 s
b01011 7!
b11010 6!
13!
b00000001000 5!
1!
1O
1.!
b01101001 -!
0/!
b0001000 1!
b1001 0!
#131000
0@
0^
#140000
0!
0O
#150000
b01 4!
0m
1j
1P!
1D!
11
b01101001 3
0r
0>!
0L!
1;!
b01101001 <!
b00001000 B!
b00001000 q
19!
0.!
1!
1O
b00001000 -!
1/
#160000
0!
0O
#170000
1!
1O
b01011000 B!
02
0A!
b0000000000000001 Q!
1n
0p
1?!
b00001000 3
0/
b01011000 -!
1,!
09!
b01011000 q
b10 4!
b00001000 <!
0Y
#180000
0O
0!
#190000
b0000000000000010 Q!
b00001 M
1O
1!
#200000
0O
0!
#210000
b0000000000000011 Q!
b00010 M
1O
1!
#220000
0O
0!
#230000
b0000000000000100 Q!
b00011 M
1O
1!
#240000
0O
0!
#250000
b0000000000000101 Q!
b00100 M
1O
1!
#260000
0O
0!
#270000
b0000000000000110 Q!
b00101 M
1O
1!
#280000
0O
0!
#290000
b0000000000000111 Q!
b00110 M
1O
1!
#300000
0O
0!
#310000
b0000000000001000 Q!
b00111 M
1O
1!
#320000
0O
0!
#330000
b0000000000001001 Q!
b01000 M
1O
1!
#340000
0O
0!
#350000
b0000000000001010 Q!
b01001 M
1O
1!
#360000
0O
0!
#370000
b0000000000001011 Q!
b01010 M
1O
1!
#380000
0O
0!
#390000
b0000000000001100 Q!
b01011 M
1O
1!
#400000
0O
0!
#410000
b0000000000001101 Q!
b01100 M
1O
1!
#420000
0O
0!
#430000
b0000000000001110 Q!
b01101 M
1O
1!
#440000
0O
0!
#450000
b0000000000001111 Q!
b01110 M
1O
1!
#460000
0O
0!
#470000
b0000000000010000 Q!
b01111 M
1O
1!
#480000
0O
0!
#490000
b0000000000010001 Q!
b10000 M
1O
1!
#500000
0O
0!
#510000
b0000000000010010 Q!
b10001 M
1O
1!
#520000
0O
0!
#530000
b0000000000010011 Q!
b10010 M
1O
1!
#540000
0O
0!
#550000
b0000000000010100 Q!
b10011 M
1O
1!
#560000
0O
0!
#570000
b0000000000010101 Q!
b10100 M
1O
1!
#580000
0O
0!
#590000
b0000000000010110 Q!
b10101 M
1O
1!
#600000
0O
0!
#610000
b0000000000010111 Q!
b10110 M
1O
1!
#620000
0O
0!
#630000
b0000000000011000 Q!
b10111 M
1O
1!
#640000
0O
0!
#650000
b0000000000011001 Q!
b11000 M
1O
1!
#660000
0O
0!
#670000
b0000000000011010 Q!
b11001 M
1O
1!
#680000
0O
0!
#690000
b0000000000011011 Q!
b11010 M
1O
1!
#700000
0O
0!
#710000
b0000000000011100 Q!
b11011 M
1O
1!
#720000
0O
0!
#730000
b0000000000011101 Q!
b11100 M
1O
1!
#740000
0O
0!
#750000
b0000000000011110 Q!
b11101 M
1O
1!
#760000
0O
0!
#770000
b0000000000011111 Q!
b11110 M
1O
1!
#780000
0O
0!
#790000
b0000000000100000 Q!
b11111 M
1O
1!
#800000
0O
0!
#810000
1p
12
1A!
1Y
b0000000000100001 Q!
b00000 M
1O
1!
#820000
0O
0!
#830000
0p
1!
b01101001 -!
1m
1/!
b01011000 <!
10
b01101001 B!
b00 4!
0?!
0n
1>!
0o
0,!
1A
b01101001 q
1:!
0@!
b0000000000100010 Q!
0Y
0A!
02
1O
b01011000 3
03!
#840000
0!
0O
#850000
b00001 M
b0000000000100011 Q!
1!
1O
#860000
0!
0O
#870000
b00010 M
b0000000000100100 Q!
1!
1O
#880000
0!
0O
#890000
b00011 M
b0000000000100101 Q!
1!
1O
#900000
0!
0O
#910000
b00100 M
b0000000000100110 Q!
1!
1O
#920000
0!
0O
#930000
b00101 M
b0000000000100111 Q!
1!
1O
#940000
0!
0O
#950000
b00110 M
b0000000000101000 Q!
1!
1O
#960000
0!
0O
#970000
b00111 M
b0000000000101001 Q!
1!
1O
#980000
0!
0O
#990000
b01000 M
b0000000000101010 Q!
1!
1O
#1000000
0!
0O
#1010000
b01001 M
b0000000000101011 Q!
1!
1O
#1020000
0!
0O
#1030000
b01010 M
b0000000000101100 Q!
1!
1O
#1040000
0!
0O
#1050000
b01011 M
b0000000000101101 Q!
1!
1O
#1060000
0!
0O
#1070000
b01100 M
b0000000000101110 Q!
1!
1O
#1080000
0!
0O
#1090000
b01101 M
b0000000000101111 Q!
1!
1O
#1100000
0!
0O
#1110000
b01110 M
b0000000000110000 Q!
1!
1O
#1120000
0!
0O
#1130000
b01111 M
b0000000000110001 Q!
1!
1O
#1140000
0!
0O
#1150000
b10000 M
b0000000000110010 Q!
1!
1O
#1160000
0!
0O
#1170000
b10001 M
b0000000000110011 Q!
1!
1O
#1180000
0!
0O
#1190000
b10010 M
b0000000000110100 Q!
1!
1O
#1200000
0!
0O
#1210000
b10011 M
b0000000000110101 Q!
1!
1O
#1220000
0!
0O
#1230000
b10100 M
b0000000000110110 Q!
1!
1O
#1240000
0!
0O
#1250000
b10101 M
b0000000000110111 Q!
1!
1O
#1260000
0!
0O
#1270000
b10110 M
b0000000000111000 Q!
1!
1O
#1280000
0!
0O
#1290000
b10111 M
b0000000000111001 Q!
1!
1O
#1300000
0!
0O
#1310000
b11000 M
b0000000000111010 Q!
1!
1O
#1320000
0!
0O
#1330000
b11001 M
b0000000000111011 Q!
1!
1O
#1340000
0!
0O
#1350000
b11010 M
b0000000000111100 Q!
1!
1O
#1360000
0!
0O
#1370000
b11011 M
b0000000000111101 Q!
1!
1O
#1380000
0!
0O
#1390000
b11100 M
b0000000000111110 Q!
1!
1O
#1400000
0!
0O
#1410000
b11101 M
b0000000000111111 Q!
1!
1O
#1420000
0!
0O
#1430000
b11110 M
b0000000001000000 Q!
1!
1O
#1440000
0!
0O
#1450000
b11111 M
b0000000001000001 Q!
1!
1O
#1460000
0!
0O
#1470000
1!
1O
b00000 M
b0000000001000010 Q!
1p
1u
1Y
1A!
12
#1480000
0O
0!
#1490000
1O
1!
02
0P!
1R!
0;!
01
b0000000001000011 Q!
0u
0Y
#1500000
0!
0O
#1510000
b000001 S!
b00001 M
b0000000001000100 Q!
1!
1O
#1520000
0!
0O
#1530000
b000010 S!
b00010 M
b0000000001000101 Q!
1!
1O
#1540000
0!
0O
#1550000
b000011 S!
b00011 M
b0000000001000110 Q!
1!
1O
#1560000
0!
0O
#1570000
b000100 S!
b00100 M
b0000000001000111 Q!
1!
1O
#1580000
0!
0O
#1590000
b000101 S!
b00101 M
b0000000001001000 Q!
1!
1O
#1600000
0!
0O
#1610000
b000110 S!
b00110 M
b0000000001001001 Q!
1!
1O
#1620000
0!
0O
#1630000
b000111 S!
b00111 M
b0000000001001010 Q!
1!
1O
#1640000
0!
0O
#1650000
b001000 S!
b01000 M
b0000000001001011 Q!
1!
1O
#1660000
0!
0O
#1670000
b001001 S!
b01001 M
b0000000001001100 Q!
1!
1O
#1680000
0!
0O
#1690000
b001010 S!
b01010 M
b0000000001001101 Q!
1!
1O
#1700000
0!
0O
#1710000
b001011 S!
b01011 M
b0000000001001110 Q!
1!
1O
#1720000
0!
0O
#1730000
b001100 S!
b01100 M
b0000000001001111 Q!
1!
1O
#1740000
0!
0O
#1750000
b001101 S!
b01101 M
b0000000001010000 Q!
1!
1O
#1760000
0!
0O
#1770000
b001110 S!
b01110 M
b0000000001010001 Q!
1!
1O
#1780000
0!
0O
#1790000
b001111 S!
b01111 M
b0000000001010010 Q!
1!
1O
#1800000
0!
0O
#1810000
b010000 S!
b10000 M
b0000000001010011 Q!
1!
1O
#1820000
0!
0O
#1830000
b010001 S!
b10001 M
b0000000001010100 Q!
1!
1O
#1840000
0!
0O
#1850000
b010010 S!
b10010 M
b0000000001010101 Q!
1!
1O
#1860000
0!
0O
#1870000
b010011 S!
b10011 M
b0000000001010110 Q!
1!
1O
#1880000
0!
0O
#1890000
b010100 S!
b10100 M
b0000000001010111 Q!
1!
1O
#1900000
0!
0O
#1910000
b010101 S!
b10101 M
b0000000001011000 Q!
1!
1O
#1920000
0!
0O
#1930000
b010110 S!
b10110 M
b0000000001011001 Q!
1!
1O
#1940000
0!
0O
#1950000
b010111 S!
b10111 M
b0000000001011010 Q!
1!
1O
#1960000
0!
0O
#1970000
b011000 S!
b11000 M
b0000000001011011 Q!
1!
1O
#1980000
0!
0O
#1990000
b011001 S!
b11001 M
b0000000001011100 Q!
1!
1O
#2000000
0!
0O
#2010000
b011010 S!
b11010 M
b0000000001011101 Q!
1!
1O
#2020000
0!
0O
#2030000
b011011 S!
b11011 M
b0000000001011110 Q!
1!
1O
#2040000
0!
0O
#2050000
b011100 S!
b11100 M
b0000000001011111 Q!
1!
1O
#2060000
0!
0O
#2070000
b011101 S!
b11101 M
b0000000001100000 Q!
1!
1O
#2080000
0!
0O
#2090000
b011110 S!
b11110 M
b0000000001100001 Q!
1!
1O
#2100000
0!
0O
#2110000
b011111 S!
b11111 M
b0000000001100010 Q!
1!
1O
#2120000
0!
0O
#2130000
1!
1O
b100000 S!
b00000 M
b0000000001100011 Q!
12
1Y
#2140000
0O
0!
#2150000
b100001 S!
b0000000001100100 Q!
1O
1!
#2160000
0O
0!
#2170000
b100010 S!
b0000000001100101 Q!
1O
1!
#2180000
0O
0!
#2190000
b100011 S!
b0000000001100110 Q!
1O
1!
#2200000
0O
0!
#2210000
b100100 S!
b0000000001100111 Q!
1O
1!
#2220000
0O
0!
#2230000
b100101 S!
b0000000001101000 Q!
1O
1!
#2240000
0O
0!
#2250000
b100110 S!
b0000000001101001 Q!
1O
1!
#2260000
0O
0!
#2270000
b100111 S!
b0000000001101010 Q!
1O
1!
#2280000
0O
0!
#2290000
b101000 S!
b0000000001101011 Q!
1O
1!
#2300000
0O
0!
#2310000
b101001 S!
b0000000001101100 Q!
1O
1!
#2320000
0O
0!
#2330000
b101010 S!
b0000000001101101 Q!
1O
1!
#2340000
0O
0!
#2350000
b101011 S!
b0000000001101110 Q!
1O
1!
#2360000
0O
0!
#2370000
b101100 S!
b0000000001101111 Q!
1O
1!
#2380000
0O
0!
#2390000
b101101 S!
b0000000001110000 Q!
1O
1!
#2400000
0O
0!
#2410000
b101110 S!
b0000000001110001 Q!
1O
1!
#2420000
0O
0!
#2430000
b101111 S!
b0000000001110010 Q!
1O
1!
#2440000
0O
0!
#2450000
b110000 S!
b0000000001110011 Q!
1O
1!
#2460000
0O
0!
#2470000
b110001 S!
b0000000001110100 Q!
1O
1!
#2480000
0O
0!
#2490000
b110010 S!
b0000000001110101 Q!
1O
1!
#2500000
0O
0!
#2510000
b110011 S!
b0000000001110110 Q!
1O
1!
#2520000
0O
0!
#2530000
b110100 S!
b0000000001110111 Q!
1O
1!
#2540000
0O
0!
#2550000
b110101 S!
b0000000001111000 Q!
1O
1!
#2560000
0O
0!
#2570000
b110110 S!
b0000000001111001 Q!
1O
1!
#2580000
0O
0!
#2590000
b110111 S!
b0000000001111010 Q!
1O
1!
#2600000
0O
0!
#2610000
b111000 S!
b0000000001111011 Q!
1O
1!
#2620000
0O
0!
#2630000
b111001 S!
b0000000001111100 Q!
1O
1!
#2640000
0O
0!
#2650000
b111010 S!
b0000000001111101 Q!
1O
1!
#2660000
0O
0!
#2670000
b111011 S!
b0000000001111110 Q!
1O
1!
#2680000
0O
0!
#2690000
b111100 S!
b0000000001111111 Q!
1O
1!
#2700000
0O
0!
#2710000
b111101 S!
b0000000010000000 Q!
1O
1!
#2720000
0O
0!
#2730000
b111110 S!
b0000000010000001 Q!
1O
1!
#2740000
0O
0!
#2750000
1T!
b111111 S!
b0000000010000010 Q!
1O
1!
#2760000
0O
0!
#2770000
1O
1!
b000000 S!
0V!
0)
b0000000010000011 Q!
0H!
0R!
0T!
#2780000
0!
0O
#2790000
b0000000010000100 Q!
1!
1O
#2800000
0!
0O
#2810000
b0000000010000101 Q!
1!
1O
#2820000
0!
0O
#2830000
b0000000010000110 Q!
1!
1O
#2840000
0!
0O
#2850000
b0000000010000111 Q!
1!
1O
#2860000
0!
0O
#2870000
b0000000010001000 Q!
1!
1O
#2880000
0!
0O
#2890000
b0000000010001001 Q!
1!
1O
#2900000
0!
0O
#2910000
b0000000010001010 Q!
1!
1O
#2920000
0!
0O
#2930000
b0000000010001011 Q!
1!
1O
#2940000
0!
0O
#2950000
b0000000010001100 Q!
1!
1O
#2960000
0!
0O
#2970000
b0000000010001101 Q!
1!
1O
#2980000
0!
0O
#2990000
b0000000010001110 Q!
1!
1O
#3000000
0!
0O
#3010000
b0000000010001111 Q!
1!
1O
#3020000
0!
0O
#3030000
b0000000010010000 Q!
1!
1O
#3040000
0!
0O
#3050000
b0000000010010001 Q!
1!
1O
#3060000
0!
0O
#3070000
b0000000010010010 Q!
1!
1O
#3080000
0!
0O
#3090000
b0000000010010011 Q!
1!
1O
#3100000
0!
0O
#3110000
b0000000010010100 Q!
1!
1O
#3120000
0!
0O
#3130000
b0000000010010101 Q!
1!
1O
#3140000
0!
0O
#3150000
b0000000010010110 Q!
1!
1O
#3160000
0!
0O
#3170000
b0000000010010111 Q!
1!
1O
#3180000
0!
0O
#3190000
b0000000010011000 Q!
1!
1O
#3200000
0!
0O
#3210000
b0000000010011001 Q!
1!
1O
#3220000
0!
0O
#3230000
b0000000010011010 Q!
1!
1O
#3240000
0!
0O
#3250000
b0000000010011011 Q!
1!
1O
#3260000
0!
0O
#3270000
b0000000010011100 Q!
1!
1O
#3280000
0!
0O
#3290000
b0000000010011101 Q!
1!
1O
#3300000
0!
0O
#3310000
b0000000010011110 Q!
1!
1O
#3320000
0!
0O
#3330000
b0000000010011111 Q!
1!
1O
#3340000
0!
0O
#3350000
b0000000010100000 Q!
1!
1O
#3360000
0!
0O
#3370000
b0000000010100001 Q!
1!
1O
#3380000
0!
0O
#3390000
b0000000010100010 Q!
1!
1O
#3400000
0!
0O
#3410000
b0000000010100011 Q!
1!
1O
#3420000
0!
0O
#3430000
b0000000010100100 Q!
1!
1O
#3440000
0!
0O
#3450000
b0000000010100101 Q!
1!
1O
#3460000
0!
0O
#3470000
b0000000010100110 Q!
1!
1O
#3480000
0!
0O
#3490000
b0000000010100111 Q!
1!
1O
#3500000
0!
0O
#3510000
b0000000010101000 Q!
1!
1O
#3520000
0!
0O
#3530000
b0000000010101001 Q!
1!
1O
#3540000
0!
0O
#3550000
b0000000010101010 Q!
1!
1O
#3560000
0!
0O
#3570000
b0000000010101011 Q!
1!
1O
#3580000
0!
0O
#3590000
b0000000010101100 Q!
1!
1O
#3600000
0!
0O
#3610000
b0000000010101101 Q!
1!
1O
#3620000
0!
0O
#3630000
b0000000010101110 Q!
1!
1O
#3640000
0!
0O
#3650000
b0000000010101111 Q!
1!
1O
#3660000
0!
0O
#3670000
b0000000010110000 Q!
1!
1O
#3680000
0!
0O
#3690000
b0000000010110001 Q!
1!
1O
#3700000
0!
0O
#3710000
b0000000010110010 Q!
1!
1O
#3720000
0!
0O
#3730000
b0000000010110011 Q!
1!
1O
#3740000
0!
0O
#3750000
b0000000010110100 Q!
1!
1O
#3760000
0!
0O
#3770000
b0000000010110101 Q!
1!
1O
#3780000
0!
0O
#3790000
b0000000010110110 Q!
1!
1O
#3800000
0!
0O
#3810000
b0000000010110111 Q!
1!
1O
#3820000
0!
0O
#3830000
b0000000010111000 Q!
1!
1O
#3840000
0!
0O
#3850000
b0000000010111001 Q!
1!
1O
#3860000
0!
0O
#3870000
b0000000010111010 Q!
1!
1O
#3880000
0!
0O
#3890000
b0000000010111011 Q!
1!
1O
#3900000
0!
0O
#3910000
b0000000010111100 Q!
1!
1O
#3920000
0!
0O
#3930000
b0000000010111101 Q!
1!
1O
#3940000
0!
0O
#3950000
b0000000010111110 Q!
1!
1O
#3960000
0!
0O
#3970000
b0000000010111111 Q!
1!
1O
#3980000
0!
0O
#3990000
b0000000011000000 Q!
1!
1O
#4000000
0!
0O
#4010000
b0000000011000001 Q!
1!
1O
#4020000
0!
0O
#4030000
b0000000011000010 Q!
1!
1O
#4040000
0!
0O
#4050000
b0000000011000011 Q!
1!
1O
#4060000
0!
0O
#4070000
b0000000011000100 Q!
1!
1O
#4080000
0!
0O
#4090000
b0000000011000101 Q!
1!
1O
#4100000
0!
0O
#4110000
b0000000011000110 Q!
1!
1O
#4120000
0!
0O
#4130000
b0000000011000111 Q!
1!
1O
#4140000
0!
0O
#4150000
b0000000011001000 Q!
1!
1O
#4160000
0!
0O
#4170000
b0000000011001001 Q!
1!
1O
#4180000
0!
0O
#4190000
b0000000011001010 Q!
1!
1O
#4200000
0!
0O
#4210000
b0000000011001011 Q!
1!
1O
#4220000
0!
0O
#4230000
b0000000011001100 Q!
1!
1O
#4240000
0!
0O
#4250000
b0000000011001101 Q!
1!
1O
#4260000
0!
0O
#4270000
b0000000011001110 Q!
1!
1O
#4280000
0!
0O
#4290000
b0000000011001111 Q!
1!
1O
#4300000
0!
0O
#4310000
b0000000011010000 Q!
1!
1O
#4320000
0!
0O
#4330000
b0000000011010001 Q!
1!
1O
#4340000
0!
0O
#4350000
b0000000011010010 Q!
1!
1O
#4360000
0!
0O
#4370000
b0000000011010011 Q!
1!
1O
#4380000
0!
0O
#4390000
b0000000011010100 Q!
1!
1O
#4400000
0!
0O
#4410000
b0000000011010101 Q!
1!
1O
#4420000
0!
0O
#4430000
b0000000011010110 Q!
1!
1O
#4440000
0!
0O
#4450000
b0000000011010111 Q!
1!
1O
#4460000
0!
0O
#4470000
b0000000011011000 Q!
1!
1O
#4480000
0!
0O
#4490000
b0000000011011001 Q!
1!
1O
#4500000
0!
0O
#4510000
b0000000011011010 Q!
1!
1O
#4520000
0!
0O
#4530000
b0000000011011011 Q!
1!
1O
#4540000
0!
0O
#4550000
b0000000011011100 Q!
1!
1O
#4560000
0!
0O
#4570000
b0000000011011101 Q!
1!
1O
#4580000
0!
0O
#4590000
b0000000011011110 Q!
1!
1O
#4600000
0!
0O
#4610000
b0000000011011111 Q!
1!
1O
#4620000
0!
0O
#4630000
b0000000011100000 Q!
1!
1O
#4640000
0!
0O
#4650000
b0000000011100001 Q!
1!
1O
#4660000
0!
0O
#4670000
b0000000011100010 Q!
1!
1O
#4680000
0!
0O
#4690000
b0000000011100011 Q!
1!
1O
#4700000
0!
0O
#4710000
b0000000011100100 Q!
1!
1O
#4720000
0!
0O
#4730000
b0000000011100101 Q!
1!
1O
